<?xml version="1.0" standalone="no"?>
<!DOCTYPE svg PUBLIC "-//W3C//DTD SVG 1.1//EN" "http://www.w3.org/Graphics/SVG/1.1/DTD/svg11.dtd" >
<svg xmlns="http://www.w3.org/2000/svg">
<metadata>Generated by IcoMoon</metadata>
<defs>
<font id="icomoon" horiz-adv-x="1024">
<font-face units-per-em="1024" ascent="960" descent="-64" />
<missing-glyph horiz-adv-x="1024" />
<glyph unicode="&#x20;" horiz-adv-x="512" d="" />
<glyph unicode="&#xe900;" glyph-name="calendar" d="M972.8 891.733h-119.467v51.2c0 9.438-7.629 17.067-17.067 17.067h-119.467c-9.438 0-17.067-7.629-17.067-17.067v-51.2h-375.467v51.2c0 9.438-7.629 17.067-17.067 17.067h-119.467c-9.438 0-17.067-7.629-17.067-17.067v-51.2h-119.467c-9.438 0-17.067-7.629-17.067-17.067v-921.6c0-9.438 7.629-17.067 17.067-17.067h921.6c9.438 0 17.067 7.629 17.067 17.067v921.6c0 9.438-7.629 17.067-17.067 17.067zM733.867 925.867h85.333v-102.4h-85.333v102.4zM204.8 925.867h85.333v-102.4h-85.333v102.4zM68.267 857.6h102.4v-51.2c0-9.438 7.629-17.067 17.067-17.067h119.467c9.438 0 17.067 7.629 17.067 17.067v51.2h375.467v-51.2c0-9.438 7.629-17.067 17.067-17.067h119.467c9.438 0 17.067 7.629 17.067 17.067v51.2h102.4v-153.6h-887.467v153.6zM68.267-29.867v699.733h887.467v-699.733h-887.467zM648.533 567.467h-460.8v-494.933h648.533v494.933h-187.733zM529.067 533.333h119.467v-119.467h-119.467v119.467zM648.533 260.267h-119.467v119.467h119.467v-119.467zM375.467 379.733h119.467v-119.467h-119.467v119.467zM375.467 533.333h119.467v-119.467h-119.467v119.467zM221.867 533.333h119.467v-119.467h-119.467v119.467zM221.867 379.733h119.467v-119.467h-119.467v119.467zM341.333 106.667h-119.467v119.467h119.467v-119.467zM494.933 106.667h-119.467v119.467h119.467v-119.467zM648.533 106.667h-119.467v119.467h119.467v-119.467zM802.133 106.667h-119.467v119.467h119.467v-119.467zM802.133 260.267h-119.467v119.467h119.467v-119.467zM802.133 533.333v-119.467h-119.467v119.467h119.467z" />
<glyph unicode="&#xe901;" glyph-name="facebook" d="M1024 448c0 282.765-229.237 512-512 512-282.765 0-512-229.235-512-512 0-282.763 229.235-512 512-512 282.763 0 512 229.237 512 512zM46.545 448c0 257.071 208.384 465.455 465.455 465.455s465.455-208.384 465.455-465.455-208.384-465.455-465.455-465.455-465.455 208.384-465.455 465.455zM531.642 152.484v295.516h97.513l15.407 97.931h-112.919v49.105c0 25.553 8.378 49.943 45.056 49.943h73.308v97.745h-104.075c-87.505 0-111.383-57.622-111.383-137.495v-59.253h-60.043v-97.976h60.043v-295.516h97.094z" />
<glyph unicode="&#xe902;" glyph-name="fb-logo" d="M767.965 959.787l-132.79 0.213c-149.185 0-245.595-98.913-245.595-252.008v-116.192h-133.514c-11.537 0-20.88-9.353-20.88-20.891v-168.35c0-11.537 9.353-20.88 20.88-20.88h133.514v-424.8c0-11.537 9.343-20.88 20.88-20.88h174.198c11.537 0 20.88 9.353 20.88 20.88v424.8h156.109c11.537 0 20.88 9.343 20.88 20.88l0.064 168.35c0 5.54-2.205 10.845-6.115 14.765s-9.236 6.125-14.776 6.125h-156.163v98.498c0 47.342 11.282 71.375 72.952 71.375l89.453 0.032c11.527 0 20.869 9.353 20.869 20.88v156.322c0 11.516-9.332 20.859-20.848 20.88z" />
<glyph unicode="&#xe903;" glyph-name="google" d="M359.274 380.414h159.984c-28.082-79.396-104.139-136.32-193.182-135.663-108.041 0.798-197.376 87.228-201.571 195.191-4.496 115.728 88.35 211.311 203.097 211.311 52.466 0 100.345-19.991 136.441-52.748 8.55-7.761 21.564-7.81 29.973 0.105l58.761 55.304c9.189 8.65 9.222 23.258 0.060 31.937-57.244 54.232-134.034 88.035-218.714 89.688-180.614 3.526-332.856-144.559-334.114-325.205-1.269-182.002 145.886-329.938 327.593-329.938 174.744 0 317.495 136.823 327.057 309.176 0.255 2.161 0.422 75.19 0.422 75.19h-295.808c-12.125 0-21.953-9.828-21.953-21.953v-80.444c0-12.125 9.83-21.953 21.953-21.953zM926.164 497.459v78.598c0 10.626-8.612 19.238-19.238 19.238h-66.153c-10.626 0-19.238-8.612-19.238-19.238v-78.598h-78.598c-10.626 0-19.238-8.612-19.238-19.238v-66.153c0-10.626 8.612-19.238 19.238-19.238h78.598v-78.598c0-10.626 8.612-19.238 19.238-19.238h66.153c10.626 0 19.238 8.612 19.238 19.238v78.598h78.598c10.626 0 19.238 8.612 19.238 19.238v66.153c0 10.626-8.612 19.238-19.238 19.238h-78.598z" />
<glyph unicode="&#xe904;" glyph-name="place-localizer" d="M512.002 960c-185.037 0-335.573-150.438-335.573-335.354 0-177.716 304.964-658.591 317.946-678.975 3.837-6.023 10.485-9.672 17.627-9.672s13.791 3.649 17.625 9.672c12.982 20.384 317.944 501.261 317.944 678.975 0 184.916-150.536 335.354-335.569 335.354zM512.002-3.661c-27.6 44.644-83.611 137.063-139.074 239.466-101.207 186.865-154.701 321.323-154.701 388.842-0.002 161.869 131.787 293.558 293.775 293.558s293.773-131.688 293.773-293.558c0-67.519-53.497-201.977-154.701-388.842-55.463-102.4-111.474-194.821-139.072-239.466zM511.998 801.027c-87.529 0-158.739-69.275-158.739-154.423s71.21-154.417 158.739-154.417 158.739 69.27 158.739 154.417c0 85.149-71.21 154.423-158.739 154.423zM511.998 533.985c-64.481 0-116.943 50.521-116.943 112.621 0 62.102 52.462 112.627 116.943 112.627s116.943-50.525 116.943-112.627c0-62.1-52.46-112.621-116.943-112.621z" />
<glyph unicode="&#xe905;" glyph-name="plus" d="M512 960c-282.309 0-512-229.671-512-512s229.691-512 512-512 512 229.671 512 512-229.691 512-512 512zM512-24.615c-260.588 0-472.615 212.027-472.615 472.615s212.027 472.615 472.615 472.615 472.615-212.027 472.615-472.615-212.027-472.615-472.615-472.615zM758.154 467.692h-226.462v216.615c0 10.89-8.822 19.692-19.692 19.692s-19.692-8.802-19.692-19.692v-216.615h-226.462c-10.87 0-19.692-8.802-19.692-19.692s8.822-19.692 19.692-19.692h226.462v-236.308c0-10.89 8.822-19.692 19.692-19.692s19.692 8.802 19.692 19.692v236.308h226.462c10.87 0 19.692 8.802 19.692 19.692s-8.822 19.692-19.692 19.692z" />
<glyph unicode="&#xe906;" glyph-name="twitter" d="M731.556 549.794c0 5.167-0.094 10.287-0.326 15.36 22.11 16.478 41.286 37.097 56.461 60.695-20.294-9.124-42.078-15.221-64.979-17.779 23.366 14.383 41.286 37.376 49.758 64.977-21.877-13.265-46.080-22.761-71.821-27.695-20.619 23.46-50.035 38.4-82.573 38.959-62.464 1.024-113.105-51.759-113.105-117.899 0-9.402 0.977-18.526 2.931-27.322-94.067 6.050-177.43 55.017-233.193 128.837-9.728-17.687-15.313-38.353-15.313-60.51 0-41.892 19.968-79.127 50.315-101.097-18.571 0.837-35.979 6.469-51.245 15.686 0-0.512 0-1.024 0-1.536 0-58.555 39.006-107.614 90.763-119.063-9.495-2.699-19.503-4.096-29.79-4.051-7.307 0.047-14.383 0.838-21.271 2.329 14.383-47.989 56.181-83.038 105.658-84.201-38.726-32.115-87.505-51.292-140.474-51.153-9.124 0-18.153 0.604-26.997 1.722 50.084-34.351 109.521-54.364 173.427-54.364 208.014-0.049 321.774 181.014 321.774 338.104zM1024 448c0 282.765-229.237 512-512 512-282.765 0-512-229.235-512-512 0-282.763 229.235-512 512-512 282.763 0 512 229.237 512 512zM46.545 448c0 257.071 208.384 465.455 465.455 465.455s465.455-208.384 465.455-465.455-208.384-465.455-465.455-465.455-465.455 208.384-465.455 465.455z" />
<glyph unicode="&#xe907;" glyph-name="tw-logo" d="M1024 765.477c-37.689-16.7-78.129-28.026-120.618-33.083 43.384 25.98 76.594 67.187 92.334 116.139-40.696-24.059-85.616-41.529-133.48-50.999-38.328 40.888-92.846 66.356-153.316 66.356-116.010 0-210.072-94.062-210.072-210.009 0-16.444 1.856-32.505 5.44-47.864-174.559 8.768-329.345 92.399-432.941 219.481-18.109-30.971-28.411-67.059-28.411-105.581 0-72.883 37.113-137.191 93.423-174.815-34.426 1.151-66.804 10.621-95.15 26.363v-2.624c0-101.741 72.435-186.652 168.48-205.978-17.597-4.735-36.153-7.359-55.35-7.359-13.565 0-26.683 1.344-39.544 3.904 26.746-83.505 104.301-144.228 196.188-145.893-71.859-56.31-162.466-89.776-260.879-89.776-16.956 0-33.658 1.024-50.102 2.88 92.975-59.702 203.354-94.511 321.988-94.511 386.423 0 597.648 320.069 597.648 597.648l-0.704 27.195c41.271 29.437 76.976 66.421 105.067 108.526z" />
<glyph unicode="&#xe908;" glyph-name="user" d="M1024 448c0 282.307-229.693 512-512 512s-512-229.693-512-512c0-149.113 64.121-283.518 166.186-377.167l-0.484-0.428 16.607-14.001c1.080-0.912 2.253-1.657 3.333-2.551 8.825-7.317 17.967-14.262 27.276-20.983 3.016-2.178 6.032-4.357 9.104-6.479 9.942-6.851 20.145-13.349 30.571-19.512 2.271-1.341 4.561-2.644 6.851-3.947 11.413-6.498 23.068-12.623 35.002-18.246 0.875-0.41 1.769-0.782 2.644-1.192 38.893-18.078 80.412-31.353 123.83-39.191 1.136-0.205 2.271-0.41 3.426-0.614 13.48-2.327 27.108-4.189 40.904-5.437 1.676-0.149 3.351-0.242 5.046-0.391 13.74-1.136 27.629-1.862 41.705-1.862 13.945 0 27.704 0.726 41.37 1.825 1.731 0.149 3.463 0.242 5.194 0.391 13.684 1.247 27.201 3.053 40.55 5.343 1.154 0.205 2.327 0.41 3.482 0.633 42.766 7.671 83.689 20.648 122.079 38.26 1.415 0.652 2.849 1.266 4.264 1.936 11.487 5.399 22.714 11.227 33.718 17.427 2.737 1.545 5.455 3.109 8.173 4.71 10.017 5.902 19.866 12.065 29.435 18.618 3.444 2.346 6.814 4.822 10.221 7.28 8.173 5.883 16.198 11.953 23.999 18.302 1.731 1.396 3.593 2.607 5.288 4.040l17.036 14.224-0.503 0.428c102.959 93.687 167.694 228.706 167.694 378.582zM37.236 448c0 261.79 212.973 474.764 474.764 474.764s474.764-212.973 474.764-474.764c0-141.070-61.905-267.897-159.912-354.918-5.474 3.779-10.985 7.168-16.626 9.998l-157.64 78.811c-14.15 7.075-22.938 21.299-22.938 37.106v55.054c3.649 4.506 7.503 9.607 11.487 15.211 20.406 28.821 36.771 60.881 48.705 95.381 23.589 11.208 38.819 34.704 38.819 61.235v66.001c0 16.142-5.921 31.8-16.514 44.106v86.891c0.968 9.663 4.394 64.195-35.058 109.177-34.313 39.173-89.851 59.001-165.087 59.001s-130.774-19.828-165.087-58.982c-39.452-44.982-36.026-99.514-35.058-109.177v-86.891c-10.575-12.307-16.514-27.965-16.514-44.106v-66.001c0-20.499 9.197-39.619 24.948-52.522 15.081-59.075 46.117-103.796 57.586-118.952v-53.881c0-15.192-8.285-29.156-21.634-36.454l-147.214-80.3c-4.692-2.551-9.346-5.53-14.001-8.862-96.796 86.984-157.789 213.029-157.789 353.075zM790.509 63.87c-6.516-4.729-13.144-9.309-19.866-13.684-3.091-2.011-6.163-4.022-9.309-5.976-8.788-5.437-17.725-10.612-26.847-15.453-2.011-1.061-4.040-2.067-6.070-3.109-20.964-10.743-42.654-19.977-64.94-27.48-0.782-0.261-1.564-0.54-2.365-0.801-11.674-3.873-23.496-7.317-35.449-10.277-0.037 0-0.074-0.019-0.112-0.019-12.065-2.979-24.278-5.455-36.566-7.485-0.335-0.056-0.67-0.13-1.005-0.186-11.562-1.88-23.217-3.24-34.909-4.264-2.067-0.186-4.133-0.317-6.218-0.465-11.562-0.875-23.18-1.434-34.853-1.434-11.804 0-23.571 0.577-35.281 1.452-2.029 0.149-4.059 0.279-6.070 0.465-11.804 1.043-23.552 2.439-35.188 4.338-0.521 0.093-1.043 0.186-1.564 0.279-24.613 4.115-48.835 10.166-72.425 18.078-0.726 0.242-1.471 0.503-2.197 0.745-11.711 3.984-23.291 8.397-34.667 13.275-0.074 0.037-0.168 0.074-0.242 0.112-10.761 4.636-21.318 9.775-31.744 15.192-1.359 0.707-2.737 1.378-4.077 2.104-9.514 5.083-18.823 10.575-28.002 16.31-2.718 1.713-5.418 3.444-8.099 5.194-8.453 5.53-16.794 11.283-24.911 17.371-0.838 0.633-1.638 1.303-2.476 1.936 0.596 0.335 1.192 0.67 1.787 1.005l147.214 80.3c25.321 13.815 41.053 40.308 41.053 69.148l-0.019 67.063-4.282 5.176c-0.41 0.465-40.662 49.431-55.873 115.731l-1.694 7.373-6.349 4.115c-8.955 5.79-14.317 15.472-14.317 25.917v66.001c0 8.657 3.668 16.719 10.37 22.77l6.144 5.548v103.703l-0.168 2.439c-0.056 0.447-5.548 45.224 25.991 81.175 26.922 30.683 73.058 46.266 137.086 46.266 63.786 0 109.773-15.453 136.769-45.912 31.502-35.579 26.345-81.194 26.307-81.566l-0.168-106.142 6.144-5.548c6.684-6.032 10.37-14.113 10.37-22.77v-66.001c0-13.275-9.030-25.321-21.988-29.324l-9.253-2.849-2.979-9.216c-10.985-34.127-26.624-65.648-46.471-93.687-4.878-6.889-9.626-12.995-13.703-17.669l-4.617-5.269v-68.869c0-30.013 16.682-57.009 43.529-70.414l157.64-78.811c1.005-0.503 1.992-1.024 2.979-1.545-1.992-1.508-4.040-2.904-6.051-4.357z" />
<glyph unicode="&#xe909;" glyph-name="vimeo" d="M512 960c-282.782 0-512-229.218-512-512s229.218-512 512-512 512 229.218 512 512-229.218 512-512 512zM512 16c-238.594 0-432 193.408-432 432 0 238.594 193.406 432 432 432s432-193.406 432-432c0-238.592-193.406-432-432-432zM687.218 672c-65.093 0-115.999-42.126-138.030-121.407 23.997 11.376 67.564 17.312 70.969-22.312 3.441-39.657-56.779-142.218-83.215-142.218-26.374 0-46 115.968-52.875 168.966-6.813 53.062-19.063 111.5-68.969 111.5-49.968 0-114.031-78.313-159.093-113.999l23.5-32.155c0 0 33.251 26.219 45.032 24.249 30.343-7.907 56.28-131.314 69.53-178.376 13.186-47.094 29.313-142.252 94.438-142.252 105.252 0 279.5 261.156 279.5 346.409-0.004 56.001-15.691 101.596-80.786 101.596z" />
</font></defs></svg>